{
	"info": {
		"_postman_id": "1a97f889-4290-4274-afaf-5922f9f4aa9c",
		"name": "Local_Variables_Newman",
		"description": "Run postman through CLI using newman node.js libraries.\nThis is for normal run.\n",
		"schema": "https://schema.getpostman.com/json/collection/v2.1.0/collection.json"
	},
	"item": [
		{
			"name": "Login API",
			"event": [
				{
					"listen": "prerequest",
					"script": {
						"id": "55072b57-57a8-42c1-9286-4c3125015d47",
						"exec": [
							"pm.globals.clear();",
							"pm.variables.set(\"x\",5);",
							""
						],
						"type": "text/javascript"
					}
				},
				{
					"listen": "test",
					"script": {
						"id": "7c824147-1804-4c49-bd3f-3ef5e897a352",
						"exec": [
							"pm.test(\"Status check\", function () {",
							"    var jsonData = pm.response.json();",
							"    pm.expect(jsonData.status).to.eql(\"success\");",
							"});",
							"console.log(pm.variables.get(\"x\"));"
						],
						"type": "text/javascript"
					}
				}
			],
			"request": {
				"method": "POST",
				"header": [
					{
						"key": "Content-Type",
						"name": "Content-Type",
						"value": "application/json",
						"type": "text"
					}
				],
				"body": {
					"mode": "raw",
					"raw": "{\n\t\"email\":\"jatinvsharma@gmail.com\",\n\t\"password\":\"123123123\"\n}",
					"options": {
						"raw": {
							"language": "json"
						}
					}
				},
				"url": {
					"raw": "http://142.93.219.181:3000/user/signin",
					"protocol": "http",
					"host": [
						"142",
						"93",
						"219",
						"181"
					],
					"port": "3000",
					"path": [
						"user",
						"signin"
					]
				},
				"description": "Create API request\t\t"
			},
			"response": []
		},
		{
			"name": "Add Product",
			"event": [
				{
					"listen": "prerequest",
					"script": {
						"id": "d03e5230-3155-4a9c-8924-e6010bbda6a3",
						"exec": [
							""
						],
						"type": "text/javascript"
					}
				},
				{
					"listen": "test",
					"script": {
						"id": "67f69efd-ab26-4d7f-b02a-81b5adbb5fd7",
						"exec": [
							"pm.test(\"Status check\", function () {",
							"    var jsonData = pm.response.json();",
							"    pm.expect(jsonData.status).to.eql(\"success\");",
							"});",
							""
						],
						"type": "text/javascript"
					}
				}
			],
			"request": {
				"method": "POST",
				"header": [
					{
						"key": "Content-Type",
						"name": "Content-Type",
						"value": "application/json",
						"type": "text"
					},
					{
						"key": "Authorization",
						"value": "eyJ0eXAiOiJKV1QiLCJhbGciOiJIUzI1NiJ9.eyJsYXN0X21vZGlmaWVkIjoxNTY5MzAyNDM0MDE4LCJleHBpcmVfYXQiOjE1NzQ0ODY0MzQwMTksInBheWxvYWQiOnsiaWQiOjIsIm5hbWUiOiJKYXRpbiBTaGFybWEiLCJlbWFpbCI6ImphdGludnNoYXJtYUBnbWFpbC5jb20iLCJyb2xlIjoiYWRtaW4iLCJtb2JpbGVfbnVtYmVyIjoiMTIzMTIzMTIzMSJ9fQ.zwdxWe6s7TTVsymWS6xJF6b5nJOraJ3gasN2qKwaEW4",
						"type": "text"
					}
				],
				"body": {
					"mode": "raw",
					"raw": "{\n\t\"prod_name\": \"Billy Jeans\",\n\t\"prod_desc\": \"Acid wash jeans\",\n\t\"prod_price\": \"2300\"\n}",
					"options": {
						"raw": {
							"language": "json"
						}
					}
				},
				"url": {
					"raw": "http://142.93.219.181:3000/api/v1/products",
					"protocol": "http",
					"host": [
						"142",
						"93",
						"219",
						"181"
					],
					"port": "3000",
					"path": [
						"api",
						"v1",
						"products"
					]
				},
				"description": "Create Product in Database/catalogue"
			},
			"response": []
		},
		{
			"name": "Get Product",
			"event": [
				{
					"listen": "test",
					"script": {
						"id": "89796b37-4cc5-453b-b5ee-797b316494fe",
						"exec": [
							""
						],
						"type": "text/javascript"
					}
				}
			],
			"request": {
				"method": "GET",
				"header": [
					{
						"key": "Authorization",
						"value": "{{new_token}}",
						"type": "text"
					}
				],
				"url": {
					"raw": "http://142.93.219.181:3000/api/v1/products/search/550",
					"protocol": "http",
					"host": [
						"142",
						"93",
						"219",
						"181"
					],
					"port": "3000",
					"path": [
						"api",
						"v1",
						"products",
						"search",
						"550"
					]
				},
				"description": "Get product details from product search\t"
			},
			"response": []
		}
	],
	"protocolProfileBehavior": {}
}